ACP Training,ACP Training Description,1 Day
Agile Coaching,Agile Coaching Description, 2 Days
Agile Engineering,Agile Engineering Description, 2 Days
Agile Fundamentals,Agile Fundamentals Description,3 Days
Agile Project Management,Agile Project Management Description,2 Days
Agile Testing,Agile Testing Description,1 Day
Application Security Awareness,Application Security Awareness Description,3 Days
Automated Testing,Automated Testing Description,3 Days
DevOps Leadership Workshop,DevOps Leadership Workshop Description,1 Day
DevOps Test Integration,DevOps Test Integration Description,2 Days
Foundations of DevOps,Foundations of DevOps Description,2 Days
Fundamentals of Software Security,Fundamentals of Software Security Description,1 Day
Introduction to Agile for Managers,Introduction to Agile for Managers Description,1 Day
Jira Training,Jira Training Description,2 Days
Load and Performance Testing,Load and Performance Testing Description,1 Day
Mobile Application Testing,Mobile Application Testing Description,2 Days
Mobile Security Testing,Mobile Security Testing Description,1 Day
Secure Code Development,Secure Code Development Description,1 Day
SecureCI Training,SecureCI Training Description,2 Days
Testing with JMeter,Testing with JMeter Description,2 Days
